%YAML 1.1
%TAG !u! tag:unity3d.com,2011:
--- !u!78 &1
TagManager:
  serializedVersion: 2
  tags:
  - FftVisualizer
  - CosmoticPlayer
  - PersonalSoundSculptureRecorder
  - SoundSculpture
  - projectile
  - FxTemporaire
  - ship
  - asteroid
  - boid
  - island
  - desertRing
  layers:
  - Default
  - TransparentFX
  - Ignore Raycast
  - 
  - Water
  - UI
  - 
  - 
  - WorldSphere
  - Player
  - SoundSculpture
  - SoundSculptureDetector
  - GlitchObjects
  - SoundObjects
  - 
  - 
  - 
  - 
  - 
  - 
  - 
  - 
  - 
  - 
  - 
  - 
  - 
  - 
  - 
  - 
  - 
  - 
  m_SortingLayers:
  - name: Default
    uniqueID: 0
    locked: 0
