%YAML 1.1
%TAG !u! tag:unity3d.com,2011:
--- !u!29 &1
OcclusionCullingSettings:
  m_ObjectHideFlags: 0
  serializedVersion: 2
  m_OcclusionBakeSettings:
    smallestOccluder: 5
    smallestHole: 0.25
    backfaceThreshold: 100
  m_SceneGUID: 00000000000000000000000000000000
  m_OcclusionCullingData: {fileID: 0}
--- !u!104 &2
RenderSettings:
  m_ObjectHideFlags: 0
  serializedVersion: 9
  m_Fog: 0
  m_FogColor: {r: 0.5, g: 0.5, b: 0.5, a: 1}
  m_FogMode: 3
  m_FogDensity: 0.01
  m_LinearFogStart: 0
  m_LinearFogEnd: 300
  m_AmbientSkyColor: {r: 0.212, g: 0.227, b: 0.259, a: 1}
  m_AmbientEquatorColor: {r: 0.114, g: 0.125, b: 0.133, a: 1}
  m_AmbientGroundColor: {r: 0.047, g: 0.043, b: 0.035, a: 1}
  m_AmbientIntensity: 1
  m_AmbientMode: 0
  m_SubtractiveShadowColor: {r: 0.42, g: 0.478, b: 0.627, a: 1}
  m_SkyboxMaterial: {fileID: 0}
  m_HaloStrength: 0.5
  m_FlareStrength: 1
  m_FlareFadeSpeed: 3
  m_HaloTexture: {fileID: 0}
  m_SpotCookie: {fileID: 10001, guid: 0000000000000000e000000000000000, type: 0}
  m_DefaultReflectionMode: 0
  m_DefaultReflectionResolution: 128
  m_ReflectionBounces: 1
  m_ReflectionIntensity: 1
  m_CustomReflection: {fileID: 0}
  m_Sun: {fileID: 0}
  m_IndirectSpecularColor: {r: 0, g: 0, b: 0, a: 1}
  m_UseRadianceAmbientProbe: 0
--- !u!157 &3
LightmapSettings:
  m_ObjectHideFlags: 0
  serializedVersion: 11
  m_GIWorkflowMode: 1
  m_GISettings:
    serializedVersion: 2
    m_BounceScale: 1
    m_IndirectOutputScale: 1
    m_AlbedoBoost: 1
    m_EnvironmentLightingMode: 0
    m_EnableBakedLightmaps: 1
    m_EnableRealtimeLightmaps: 0
  m_LightmapEditorSettings:
    serializedVersion: 12
    m_Resolution: 2
    m_BakeResolution: 40
    m_AtlasSize: 1024
    m_AO: 0
    m_AOMaxDistance: 1
    m_CompAOExponent: 1
    m_CompAOExponentDirect: 0
    m_ExtractAmbientOcclusion: 0
    m_Padding: 2
    m_LightmapParameters: {fileID: 0}
    m_LightmapsBakeMode: 1
    m_TextureCompression: 1
    m_FinalGather: 0
    m_FinalGatherFiltering: 1
    m_FinalGatherRayCount: 256
    m_ReflectionCompression: 2
    m_MixedBakeMode: 2
    m_BakeBackend: 1
    m_PVRSampling: 1
    m_PVRDirectSampleCount: 32
    m_PVRSampleCount: 512
    m_PVRBounces: 2
    m_PVREnvironmentSampleCount: 256
    m_PVREnvironmentReferencePointCount: 2048
    m_PVRFilteringMode: 1
    m_PVRDenoiserTypeDirect: 1
    m_PVRDenoiserTypeIndirect: 1
    m_PVRDenoiserTypeAO: 1
    m_PVRFilterTypeDirect: 0
    m_PVRFilterTypeIndirect: 0
    m_PVRFilterTypeAO: 0
    m_PVREnvironmentMIS: 1
    m_PVRCulling: 1
    m_PVRFilteringGaussRadiusDirect: 1
    m_PVRFilteringGaussRadiusIndirect: 5
    m_PVRFilteringGaussRadiusAO: 2
    m_PVRFilteringAtrousPositionSigmaDirect: 0.5
    m_PVRFilteringAtrousPositionSigmaIndirect: 2
    m_PVRFilteringAtrousPositionSigmaAO: 1
    m_ExportTrainingData: 0
    m_TrainingDataDestination: TrainingData
    m_LightProbeSampleCountMultiplier: 4
  m_LightingDataAsset: {fileID: 0}
  m_UseShadowmask: 1
--- !u!196 &4
NavMeshSettings:
  serializedVersion: 2
  m_ObjectHideFlags: 0
  m_BuildSettings:
    serializedVersion: 2
    agentTypeID: 0
    agentRadius: 0.5
    agentHeight: 2
    agentSlope: 45
    agentClimb: 0.4
    ledgeDropHeight: 0
    maxJumpAcrossDistance: 0
    minRegionArea: 2
    manualCellSize: 0
    cellSize: 0.16666667
    manualTileSize: 0
    tileSize: 256
    accuratePlacement: 0
    debug:
      m_Flags: 0
  m_NavMeshData: {fileID: 0}
--- !u!1001 &456747160
PrefabInstance:
  m_ObjectHideFlags: 0
  serializedVersion: 2
  m_Modification:
    m_TransformParent: {fileID: 1575976369}
    m_Modifications:
    - target: {fileID: 5780318586341075851, guid: 1ed5bc56f38de9f4f9d72d7749950e8e,
        type: 3}
      propertyPath: m_Name
      value: Box_Fractured (26)
      objectReference: {fileID: 0}
    - target: {fileID: 6592145657010778417, guid: 1ed5bc56f38de9f4f9d72d7749950e8e,
        type: 3}
      propertyPath: m_RootOrder
      value: 26
      objectReference: {fileID: 0}
    - target: {fileID: 6592145657010778417, guid: 1ed5bc56f38de9f4f9d72d7749950e8e,
        type: 3}
      propertyPath: m_LocalScale.x
      value: 1
      objectReference: {fileID: 0}
    - target: {fileID: 6592145657010778417, guid: 1ed5bc56f38de9f4f9d72d7749950e8e,
        type: 3}
      propertyPath: m_LocalScale.y
      value: 1
      objectReference: {fileID: 0}
    - target: {fileID: 6592145657010778417, guid: 1ed5bc56f38de9f4f9d72d7749950e8e,
        type: 3}
      propertyPath: m_LocalScale.z
      value: 1
      objectReference: {fileID: 0}
    - target: {fileID: 6592145657010778417, guid: 1ed5bc56f38de9f4f9d72d7749950e8e,
        type: 3}
      propertyPath: m_LocalPosition.x
      value: -0.958
      objectReference: {fileID: 0}
    - target: {fileID: 6592145657010778417, guid: 1ed5bc56f38de9f4f9d72d7749950e8e,
        type: 3}
      propertyPath: m_LocalPosition.y
      value: -1.073
      objectReference: {fileID: 0}
    - target: {fileID: 6592145657010778417, guid: 1ed5bc56f38de9f4f9d72d7749950e8e,
        type: 3}
      propertyPath: m_LocalPosition.z
      value: -1.755
      objectReference: {fileID: 0}
    - target: {fileID: 6592145657010778417, guid: 1ed5bc56f38de9f4f9d72d7749950e8e,
        type: 3}
      propertyPath: m_LocalRotation.w
      value: 0.00236704
      objectReference: {fileID: 0}
    - target: {fileID: 6592145657010778417, guid: 1ed5bc56f38de9f4f9d72d7749950e8e,
        type: 3}
      propertyPath: m_LocalRotation.x
      value: 0.7572806
      objectReference: {fileID: 0}
    - target: {fileID: 6592145657010778417, guid: 1ed5bc56f38de9f4f9d72d7749950e8e,
        type: 3}
      propertyPath: m_LocalRotation.y
      value: 0.4604463
      objectReference: {fileID: 0}
    - target: {fileID: 6592145657010778417, guid: 1ed5bc56f38de9f4f9d72d7749950e8e,
        type: 3}
      propertyPath: m_LocalRotation.z
      value: -0.46315202
      objectReference: {fileID: 0}
    - target: {fileID: 6592145657010778417, guid: 1ed5bc56f38de9f4f9d72d7749950e8e,
        type: 3}
      propertyPath: m_LocalEulerAnglesHint.x
      value: 25.474
      objectReference: {fileID: 0}
    - target: {fileID: 6592145657010778417, guid: 1ed5bc56f38de9f4f9d72d7749950e8e,
        type: 3}
      propertyPath: m_LocalEulerAnglesHint.y
      value: -129.23201
      objectReference: {fileID: 0}
    - target: {fileID: 6592145657010778417, guid: 1ed5bc56f38de9f4f9d72d7749950e8e,
        type: 3}
      propertyPath: m_LocalEulerAnglesHint.z
      value: -230.35799
      objectReference: {fileID: 0}
    m_RemovedComponents: []
  m_SourcePrefab: {fileID: 100100000, guid: 1ed5bc56f38de9f4f9d72d7749950e8e, type: 3}
--- !u!1001 &731962560
PrefabInstance:
  m_ObjectHideFlags: 0
  serializedVersion: 2
  m_Modification:
    m_TransformParent: {fileID: 1575976369}
    m_Modifications:
    - target: {fileID: 5780318586341075851, guid: 1ed5bc56f38de9f4f9d72d7749950e8e,
        type: 3}
      propertyPath: m_Name
      value: Box_Fractured (30)
      objectReference: {fileID: 0}
    - target: {fileID: 6592145657010778417, guid: 1ed5bc56f38de9f4f9d72d7749950e8e,
        type: 3}
      propertyPath: m_RootOrder
      value: 30
      objectReference: {fileID: 0}
    - target: {fileID: 6592145657010778417, guid: 1ed5bc56f38de9f4f9d72d7749950e8e,
        type: 3}
      propertyPath: m_LocalScale.x
      value: 1
      objectReference: {fileID: 0}
    - target: {fileID: 6592145657010778417, guid: 1ed5bc56f38de9f4f9d72d7749950e8e,
        type: 3}
      propertyPath: m_LocalScale.y
      value: 1
      objectReference: {fileID: 0}
    - target: {fileID: 6592145657010778417, guid: 1ed5bc56f38de9f4f9d72d7749950e8e,
        type: 3}
      propertyPath: m_LocalScale.z
      value: 1
      objectReference: {fileID: 0}
    - target: {fileID: 6592145657010778417, guid: 1ed5bc56f38de9f4f9d72d7749950e8e,
        type: 3}
      propertyPath: m_LocalPosition.x
      value: 1.405
      objectReference: {fileID: 0}
    - target: {fileID: 6592145657010778417, guid: 1ed5bc56f38de9f4f9d72d7749950e8e,
        type: 3}
      propertyPath: m_LocalPosition.y
      value: -1.967
      objectReference: {fileID: 0}
    - target: {fileID: 6592145657010778417, guid: 1ed5bc56f38de9f4f9d72d7749950e8e,
        type: 3}
      propertyPath: m_LocalPosition.z
      value: -0.937
      objectReference: {fileID: 0}
    - target: {fileID: 6592145657010778417, guid: 1ed5bc56f38de9f4f9d72d7749950e8e,
        type: 3}
      propertyPath: m_LocalRotation.w
      value: 0.49310055
      objectReference: {fileID: 0}
    - target: {fileID: 6592145657010778417, guid: 1ed5bc56f38de9f4f9d72d7749950e8e,
        type: 3}
      propertyPath: m_LocalRotation.x
      value: -0.8574605
      objectReference: {fileID: 0}
    - target: {fileID: 6592145657010778417, guid: 1ed5bc56f38de9f4f9d72d7749950e8e,
        type: 3}
      propertyPath: m_LocalRotation.y
      value: 0.13229832
      objectReference: {fileID: 0}
    - target: {fileID: 6592145657010778417, guid: 1ed5bc56f38de9f4f9d72d7749950e8e,
        type: 3}
      propertyPath: m_LocalRotation.z
      value: 0.06411385
      objectReference: {fileID: 0}
    - target: {fileID: 6592145657010778417, guid: 1ed5bc56f38de9f4f9d72d7749950e8e,
        type: 3}
      propertyPath: m_LocalEulerAnglesHint.x
      value: -59.609
      objectReference: {fileID: 0}
    - target: {fileID: 6592145657010778417, guid: 1ed5bc56f38de9f4f9d72d7749950e8e,
        type: 3}
      propertyPath: m_LocalEulerAnglesHint.y
      value: 177.675
      objectReference: {fileID: 0}
    - target: {fileID: 6592145657010778417, guid: 1ed5bc56f38de9f4f9d72d7749950e8e,
        type: 3}
      propertyPath: m_LocalEulerAnglesHint.z
      value: -161.126
      objectReference: {fileID: 0}
    m_RemovedComponents: []
  m_SourcePrefab: {fileID: 100100000, guid: 1ed5bc56f38de9f4f9d72d7749950e8e, type: 3}
--- !u!1001 &1011640979
PrefabInstance:
  m_ObjectHideFlags: 0
  serializedVersion: 2
  m_Modification:
    m_TransformParent: {fileID: 0}
    m_Modifications:
    - target: {fileID: 2026433465647381817, guid: 3c57cea86ed406441934522f1c68dccf,
        type: 3}
      propertyPath: m_Name
      value: Boxes
      objectReference: {fileID: 0}
    - target: {fileID: 2026433465647381817, guid: 3c57cea86ed406441934522f1c68dccf,
        type: 3}
      propertyPath: m_IsActive
      value: 1
      objectReference: {fileID: 0}
    - target: {fileID: 2026433465647381819, guid: 3c57cea86ed406441934522f1c68dccf,
        type: 3}
      propertyPath: m_RootOrder
      value: 2
      objectReference: {fileID: 0}
    - target: {fileID: 2026433465647381819, guid: 3c57cea86ed406441934522f1c68dccf,
        type: 3}
      propertyPath: m_LocalScale.x
      value: 4
      objectReference: {fileID: 0}
    - target: {fileID: 2026433465647381819, guid: 3c57cea86ed406441934522f1c68dccf,
        type: 3}
      propertyPath: m_LocalScale.y
      value: 4
      objectReference: {fileID: 0}
    - target: {fileID: 2026433465647381819, guid: 3c57cea86ed406441934522f1c68dccf,
        type: 3}
      propertyPath: m_LocalScale.z
      value: 4
      objectReference: {fileID: 0}
    - target: {fileID: 2026433465647381819, guid: 3c57cea86ed406441934522f1c68dccf,
        type: 3}
      propertyPath: m_LocalEulerAnglesHint.x
      value: 0
      objectReference: {fileID: 0}
    - target: {fileID: 2026433465647381819, guid: 3c57cea86ed406441934522f1c68dccf,
        type: 3}
      propertyPath: m_LocalEulerAnglesHint.y
      value: 0
      objectReference: {fileID: 0}
    - target: {fileID: 2026433465647381819, guid: 3c57cea86ed406441934522f1c68dccf,
        type: 3}
      propertyPath: m_LocalEulerAnglesHint.z
      value: 0
      objectReference: {fileID: 0}
    - target: {fileID: 7516796026521579054, guid: 3c57cea86ed406441934522f1c68dccf,
        type: 3}
      propertyPath: m_LocalPosition.x
      value: -0.47
      objectReference: {fileID: 0}
    - target: {fileID: 7516796026521579054, guid: 3c57cea86ed406441934522f1c68dccf,
        type: 3}
      propertyPath: m_LocalPosition.y
      value: 0.48
      objectReference: {fileID: 0}
    - target: {fileID: 7516796026521579054, guid: 3c57cea86ed406441934522f1c68dccf,
        type: 3}
      propertyPath: m_LocalPosition.z
      value: 1.11
      objectReference: {fileID: 0}
    m_RemovedComponents: []
  m_SourcePrefab: {fileID: 100100000, guid: 3c57cea86ed406441934522f1c68dccf, type: 3}
--- !u!1001 &1081876254
PrefabInstance:
  m_ObjectHideFlags: 0
  serializedVersion: 2
  m_Modification:
    m_TransformParent: {fileID: 1575976369}
    m_Modifications:
    - target: {fileID: 5780318586341075851, guid: 1ed5bc56f38de9f4f9d72d7749950e8e,
        type: 3}
      propertyPath: m_Name
      value: Box_Fractured (25)
      objectReference: {fileID: 0}
    - target: {fileID: 6592145657010778417, guid: 1ed5bc56f38de9f4f9d72d7749950e8e,
        type: 3}
      propertyPath: m_RootOrder
      value: 25
      objectReference: {fileID: 0}
    - target: {fileID: 6592145657010778417, guid: 1ed5bc56f38de9f4f9d72d7749950e8e,
        type: 3}
      propertyPath: m_LocalScale.x
      value: 1
      objectReference: {fileID: 0}
    - target: {fileID: 6592145657010778417, guid: 1ed5bc56f38de9f4f9d72d7749950e8e,
        type: 3}
      propertyPath: m_LocalScale.y
      value: 1
      objectReference: {fileID: 0}
    - target: {fileID: 6592145657010778417, guid: 1ed5bc56f38de9f4f9d72d7749950e8e,
        type: 3}
      propertyPath: m_LocalScale.z
      value: 1
      objectReference: {fileID: 0}
    - target: {fileID: 6592145657010778417, guid: 1ed5bc56f38de9f4f9d72d7749950e8e,
        type: 3}
      propertyPath: m_LocalPosition.x
      value: 1.978
      objectReference: {fileID: 0}
    - target: {fileID: 6592145657010778417, guid: 1ed5bc56f38de9f4f9d72d7749950e8e,
        type: 3}
      propertyPath: m_LocalPosition.y
      value: 2.189
      objectReference: {fileID: 0}
    - target: {fileID: 6592145657010778417, guid: 1ed5bc56f38de9f4f9d72d7749950e8e,
        type: 3}
      propertyPath: m_LocalPosition.z
      value: 1.167
      objectReference: {fileID: 0}
    - target: {fileID: 6592145657010778417, guid: 1ed5bc56f38de9f4f9d72d7749950e8e,
        type: 3}
      propertyPath: m_LocalRotation.w
      value: 0.00236704
      objectReference: {fileID: 0}
    - target: {fileID: 6592145657010778417, guid: 1ed5bc56f38de9f4f9d72d7749950e8e,
        type: 3}
      propertyPath: m_LocalRotation.x
      value: 0.7572806
      objectReference: {fileID: 0}
    - target: {fileID: 6592145657010778417, guid: 1ed5bc56f38de9f4f9d72d7749950e8e,
        type: 3}
      propertyPath: m_LocalRotation.y
      value: 0.4604463
      objectReference: {fileID: 0}
    - target: {fileID: 6592145657010778417, guid: 1ed5bc56f38de9f4f9d72d7749950e8e,
        type: 3}
      propertyPath: m_LocalRotation.z
      value: -0.46315202
      objectReference: {fileID: 0}
    - target: {fileID: 6592145657010778417, guid: 1ed5bc56f38de9f4f9d72d7749950e8e,
        type: 3}
      propertyPath: m_LocalEulerAnglesHint.x
      value: 25.474
      objectReference: {fileID: 0}
    - target: {fileID: 6592145657010778417, guid: 1ed5bc56f38de9f4f9d72d7749950e8e,
        type: 3}
      propertyPath: m_LocalEulerAnglesHint.y
      value: -129.23201
      objectReference: {fileID: 0}
    - target: {fileID: 6592145657010778417, guid: 1ed5bc56f38de9f4f9d72d7749950e8e,
        type: 3}
      propertyPath: m_LocalEulerAnglesHint.z
      value: -230.35799
      objectReference: {fileID: 0}
    m_RemovedComponents: []
  m_SourcePrefab: {fileID: 100100000, guid: 1ed5bc56f38de9f4f9d72d7749950e8e, type: 3}
--- !u!1 &1229782315
GameObject:
  m_ObjectHideFlags: 0
  m_CorrespondingSourceObject: {fileID: 0}
  m_PrefabInstance: {fileID: 0}
  m_PrefabAsset: {fileID: 0}
  serializedVersion: 6
  m_Component:
  - component: {fileID: 1229782318}
  - component: {fileID: 1229782317}
  - component: {fileID: 1229782316}
  m_Layer: 0
  m_Name: Main Camera
  m_TagString: MainCamera
  m_Icon: {fileID: 0}
  m_NavMeshLayer: 0
  m_StaticEditorFlags: 0
  m_IsActive: 1
--- !u!81 &1229782316
AudioListener:
  m_ObjectHideFlags: 0
  m_CorrespondingSourceObject: {fileID: 0}
  m_PrefabInstance: {fileID: 0}
  m_PrefabAsset: {fileID: 0}
  m_GameObject: {fileID: 1229782315}
  m_Enabled: 1
--- !u!20 &1229782317
Camera:
  m_ObjectHideFlags: 0
  m_CorrespondingSourceObject: {fileID: 0}
  m_PrefabInstance: {fileID: 0}
  m_PrefabAsset: {fileID: 0}
  m_GameObject: {fileID: 1229782315}
  m_Enabled: 1
  serializedVersion: 2
  m_ClearFlags: 2
  m_BackGroundColor: {r: 0, g: 0, b: 0, a: 0}
  m_projectionMatrixMode: 1
  m_GateFitMode: 2
  m_FOVAxisMode: 0
  m_SensorSize: {x: 36, y: 24}
  m_LensShift: {x: 0, y: 0}
  m_FocalLength: 50
  m_NormalizedViewPortRect:
    serializedVersion: 2
    x: 0
    y: 0
    width: 1
    height: 1
  near clip plane: 0.3
  far clip plane: 1000
  field of view: 60
  orthographic: 0
  orthographic size: 5
  m_Depth: -1
  m_CullingMask:
    serializedVersion: 2
    m_Bits: 4294967295
  m_RenderingPath: -1
  m_TargetTexture: {fileID: 0}
  m_TargetDisplay: 0
  m_TargetEye: 3
  m_HDR: 1
  m_AllowMSAA: 1
  m_AllowDynamicResolution: 0
  m_ForceIntoRT: 0
  m_OcclusionCulling: 1
  m_StereoConvergence: 10
  m_StereoSeparation: 0.022
--- !u!4 &1229782318
Transform:
  m_ObjectHideFlags: 0
  m_CorrespondingSourceObject: {fileID: 0}
  m_PrefabInstance: {fileID: 0}
  m_PrefabAsset: {fileID: 0}
  m_GameObject: {fileID: 1229782315}
  m_LocalRotation: {x: 0, y: 0, z: 0, w: 1}
  m_LocalPosition: {x: 0, y: 1, z: 0}
  m_LocalScale: {x: 1, y: 1, z: 1}
  m_Children: []
  m_Father: {fileID: 0}
  m_RootOrder: 0
  m_LocalEulerAnglesHint: {x: 0, y: 0, z: 0}
--- !u!1001 &1319903387
PrefabInstance:
  m_ObjectHideFlags: 0
  serializedVersion: 2
  m_Modification:
    m_TransformParent: {fileID: 1575976369}
    m_Modifications:
    - target: {fileID: 5780318586341075851, guid: 1ed5bc56f38de9f4f9d72d7749950e8e,
        type: 3}
      propertyPath: m_Name
      value: Box_Fractured (28)
      objectReference: {fileID: 0}
    - target: {fileID: 6592145657010778417, guid: 1ed5bc56f38de9f4f9d72d7749950e8e,
        type: 3}
      propertyPath: m_RootOrder
      value: 28
      objectReference: {fileID: 0}
    - target: {fileID: 6592145657010778417, guid: 1ed5bc56f38de9f4f9d72d7749950e8e,
        type: 3}
      propertyPath: m_LocalScale.x
      value: 1
      objectReference: {fileID: 0}
    - target: {fileID: 6592145657010778417, guid: 1ed5bc56f38de9f4f9d72d7749950e8e,
        type: 3}
      propertyPath: m_LocalScale.y
      value: 1
      objectReference: {fileID: 0}
    - target: {fileID: 6592145657010778417, guid: 1ed5bc56f38de9f4f9d72d7749950e8e,
        type: 3}
      propertyPath: m_LocalScale.z
      value: 1
      objectReference: {fileID: 0}
    - target: {fileID: 6592145657010778417, guid: 1ed5bc56f38de9f4f9d72d7749950e8e,
        type: 3}
      propertyPath: m_LocalPosition.x
      value: 3.082
      objectReference: {fileID: 0}
    - target: {fileID: 6592145657010778417, guid: 1ed5bc56f38de9f4f9d72d7749950e8e,
        type: 3}
      propertyPath: m_LocalPosition.y
      value: -0.733
      objectReference: {fileID: 0}
    - target: {fileID: 6592145657010778417, guid: 1ed5bc56f38de9f4f9d72d7749950e8e,
        type: 3}
      propertyPath: m_LocalPosition.z
      value: 0.836
      objectReference: {fileID: 0}
    - target: {fileID: 6592145657010778417, guid: 1ed5bc56f38de9f4f9d72d7749950e8e,
        type: 3}
      propertyPath: m_LocalRotation.w
      value: 0.687301
      objectReference: {fileID: 0}
    - target: {fileID: 6592145657010778417, guid: 1ed5bc56f38de9f4f9d72d7749950e8e,
        type: 3}
      propertyPath: m_LocalRotation.x
      value: -0.7113396
      objectReference: {fileID: 0}
    - target: {fileID: 6592145657010778417, guid: 1ed5bc56f38de9f4f9d72d7749950e8e,
        type: 3}
      propertyPath: m_LocalRotation.y
      value: 0.11267118
      objectReference: {fileID: 0}
    - target: {fileID: 6592145657010778417, guid: 1ed5bc56f38de9f4f9d72d7749950e8e,
        type: 3}
      propertyPath: m_LocalRotation.z
      value: 0.09443841
      objectReference: {fileID: 0}
    - target: {fileID: 6592145657010778417, guid: 1ed5bc56f38de9f4f9d72d7749950e8e,
        type: 3}
      propertyPath: m_LocalEulerAnglesHint.x
      value: -87.55501
      objectReference: {fileID: 0}
    - target: {fileID: 6592145657010778417, guid: 1ed5bc56f38de9f4f9d72d7749950e8e,
        type: 3}
      propertyPath: m_LocalEulerAnglesHint.y
      value: 151.244
      objectReference: {fileID: 0}
    - target: {fileID: 6592145657010778417, guid: 1ed5bc56f38de9f4f9d72d7749950e8e,
        type: 3}
      propertyPath: m_LocalEulerAnglesHint.z
      value: -134.397
      objectReference: {fileID: 0}
    m_RemovedComponents: []
  m_SourcePrefab: {fileID: 100100000, guid: 1ed5bc56f38de9f4f9d72d7749950e8e, type: 3}
--- !u!1001 &1440301373
PrefabInstance:
  m_ObjectHideFlags: 0
  serializedVersion: 2
  m_Modification:
    m_TransformParent: {fileID: 1575976369}
    m_Modifications:
    - target: {fileID: 5780318586341075851, guid: 1ed5bc56f38de9f4f9d72d7749950e8e,
        type: 3}
      propertyPath: m_Name
      value: Box_Fractured (24)
      objectReference: {fileID: 0}
    - target: {fileID: 6592145657010778417, guid: 1ed5bc56f38de9f4f9d72d7749950e8e,
        type: 3}
      propertyPath: m_RootOrder
      value: 24
      objectReference: {fileID: 0}
    - target: {fileID: 6592145657010778417, guid: 1ed5bc56f38de9f4f9d72d7749950e8e,
        type: 3}
      propertyPath: m_LocalScale.x
      value: 1
      objectReference: {fileID: 0}
    - target: {fileID: 6592145657010778417, guid: 1ed5bc56f38de9f4f9d72d7749950e8e,
        type: 3}
      propertyPath: m_LocalScale.y
      value: 1
      objectReference: {fileID: 0}
    - target: {fileID: 6592145657010778417, guid: 1ed5bc56f38de9f4f9d72d7749950e8e,
        type: 3}
      propertyPath: m_LocalScale.z
      value: 1
      objectReference: {fileID: 0}
    - target: {fileID: 6592145657010778417, guid: 1ed5bc56f38de9f4f9d72d7749950e8e,
        type: 3}
      propertyPath: m_LocalPosition.x
      value: 1.048
      objectReference: {fileID: 0}
    - target: {fileID: 6592145657010778417, guid: 1ed5bc56f38de9f4f9d72d7749950e8e,
        type: 3}
      propertyPath: m_LocalPosition.y
      value: 1.641
      objectReference: {fileID: 0}
    - target: {fileID: 6592145657010778417, guid: 1ed5bc56f38de9f4f9d72d7749950e8e,
        type: 3}
      propertyPath: m_LocalPosition.z
      value: -0.478
      objectReference: {fileID: 0}
    - target: {fileID: 6592145657010778417, guid: 1ed5bc56f38de9f4f9d72d7749950e8e,
        type: 3}
      propertyPath: m_LocalRotation.w
      value: 0.43904406
      objectReference: {fileID: 0}
    - target: {fileID: 6592145657010778417, guid: 1ed5bc56f38de9f4f9d72d7749950e8e,
        type: 3}
      propertyPath: m_LocalRotation.x
      value: 0.09161662
      objectReference: {fileID: 0}
    - target: {fileID: 6592145657010778417, guid: 1ed5bc56f38de9f4f9d72d7749950e8e,
        type: 3}
      propertyPath: m_LocalRotation.y
      value: 0.8265093
      objectReference: {fileID: 0}
    - target: {fileID: 6592145657010778417, guid: 1ed5bc56f38de9f4f9d72d7749950e8e,
        type: 3}
      propertyPath: m_LocalRotation.z
      value: -0.34018975
      objectReference: {fileID: 0}
    - target: {fileID: 6592145657010778417, guid: 1ed5bc56f38de9f4f9d72d7749950e8e,
        type: 3}
      propertyPath: m_LocalEulerAnglesHint.x
      value: 40
      objectReference: {fileID: 0}
    - target: {fileID: 6592145657010778417, guid: 1ed5bc56f38de9f4f9d72d7749950e8e,
        type: 3}
      propertyPath: m_LocalEulerAnglesHint.y
      value: 120.00001
      objectReference: {fileID: 0}
    - target: {fileID: 6592145657010778417, guid: 1ed5bc56f38de9f4f9d72d7749950e8e,
        type: 3}
      propertyPath: m_LocalEulerAnglesHint.z
      value: -11.084001
      objectReference: {fileID: 0}
    m_RemovedComponents: []
  m_SourcePrefab: {fileID: 100100000, guid: 1ed5bc56f38de9f4f9d72d7749950e8e, type: 3}
--- !u!4 &1575976369 stripped
Transform:
  m_CorrespondingSourceObject: {fileID: 2026433465647381819, guid: 3c57cea86ed406441934522f1c68dccf,
    type: 3}
  m_PrefabInstance: {fileID: 1011640979}
  m_PrefabAsset: {fileID: 0}
--- !u!1001 &1787825423
PrefabInstance:
  m_ObjectHideFlags: 0
  serializedVersion: 2
  m_Modification:
    m_TransformParent: {fileID: 1575976369}
    m_Modifications:
    - target: {fileID: 5780318586341075851, guid: 1ed5bc56f38de9f4f9d72d7749950e8e,
        type: 3}
      propertyPath: m_Name
      value: Box_Fractured (27)
      objectReference: {fileID: 0}
    - target: {fileID: 6592145657010778417, guid: 1ed5bc56f38de9f4f9d72d7749950e8e,
        type: 3}
      propertyPath: m_RootOrder
      value: 27
      objectReference: {fileID: 0}
    - target: {fileID: 6592145657010778417, guid: 1ed5bc56f38de9f4f9d72d7749950e8e,
        type: 3}
      propertyPath: m_LocalScale.x
      value: 1
      objectReference: {fileID: 0}
    - target: {fileID: 6592145657010778417, guid: 1ed5bc56f38de9f4f9d72d7749950e8e,
        type: 3}
      propertyPath: m_LocalScale.y
      value: 1
      objectReference: {fileID: 0}
    - target: {fileID: 6592145657010778417, guid: 1ed5bc56f38de9f4f9d72d7749950e8e,
        type: 3}
      propertyPath: m_LocalScale.z
      value: 1
      objectReference: {fileID: 0}
    - target: {fileID: 6592145657010778417, guid: 1ed5bc56f38de9f4f9d72d7749950e8e,
        type: 3}
      propertyPath: m_LocalPosition.x
      value: -0.064
      objectReference: {fileID: 0}
    - target: {fileID: 6592145657010778417, guid: 1ed5bc56f38de9f4f9d72d7749950e8e,
        type: 3}
      propertyPath: m_LocalPosition.y
      value: -0.257
      objectReference: {fileID: 0}
    - target: {fileID: 6592145657010778417, guid: 1ed5bc56f38de9f4f9d72d7749950e8e,
        type: 3}
      propertyPath: m_LocalPosition.z
      value: -3.141
      objectReference: {fileID: 0}
    - target: {fileID: 6592145657010778417, guid: 1ed5bc56f38de9f4f9d72d7749950e8e,
        type: 3}
      propertyPath: m_LocalRotation.w
      value: 0.4502352
      objectReference: {fileID: 0}
    - target: {fileID: 6592145657010778417, guid: 1ed5bc56f38de9f4f9d72d7749950e8e,
        type: 3}
      propertyPath: m_LocalRotation.x
      value: -0.7262047
      objectReference: {fileID: 0}
    - target: {fileID: 6592145657010778417, guid: 1ed5bc56f38de9f4f9d72d7749950e8e,
        type: 3}
      propertyPath: m_LocalRotation.y
      value: -0.17936124
      objectReference: {fileID: 0}
    - target: {fileID: 6592145657010778417, guid: 1ed5bc56f38de9f4f9d72d7749950e8e,
        type: 3}
      propertyPath: m_LocalRotation.z
      value: -0.48759067
      objectReference: {fileID: 0}
    - target: {fileID: 6592145657010778417, guid: 1ed5bc56f38de9f4f9d72d7749950e8e,
        type: 3}
      propertyPath: m_LocalEulerAnglesHint.x
      value: -55.979004
      objectReference: {fileID: 0}
    - target: {fileID: 6592145657010778417, guid: 1ed5bc56f38de9f4f9d72d7749950e8e,
        type: 3}
      propertyPath: m_LocalEulerAnglesHint.y
      value: 102.289
      objectReference: {fileID: 0}
    - target: {fileID: 6592145657010778417, guid: 1ed5bc56f38de9f4f9d72d7749950e8e,
        type: 3}
      propertyPath: m_LocalEulerAnglesHint.z
      value: -161.389
      objectReference: {fileID: 0}
    m_RemovedComponents: []
  m_SourcePrefab: {fileID: 100100000, guid: 1ed5bc56f38de9f4f9d72d7749950e8e, type: 3}
--- !u!1001 &2008120632
PrefabInstance:
  m_ObjectHideFlags: 0
  serializedVersion: 2
  m_Modification:
    m_TransformParent: {fileID: 1575976369}
    m_Modifications:
    - target: {fileID: 5780318586341075851, guid: 1ed5bc56f38de9f4f9d72d7749950e8e,
        type: 3}
      propertyPath: m_Name
      value: Box_Fractured (29)
      objectReference: {fileID: 0}
    - target: {fileID: 6592145657010778417, guid: 1ed5bc56f38de9f4f9d72d7749950e8e,
        type: 3}
      propertyPath: m_RootOrder
      value: 29
      objectReference: {fileID: 0}
    - target: {fileID: 6592145657010778417, guid: 1ed5bc56f38de9f4f9d72d7749950e8e,
        type: 3}
      propertyPath: m_LocalScale.x
      value: 1
      objectReference: {fileID: 0}
    - target: {fileID: 6592145657010778417, guid: 1ed5bc56f38de9f4f9d72d7749950e8e,
        type: 3}
      propertyPath: m_LocalScale.y
      value: 1
      objectReference: {fileID: 0}
    - target: {fileID: 6592145657010778417, guid: 1ed5bc56f38de9f4f9d72d7749950e8e,
        type: 3}
      propertyPath: m_LocalScale.z
      value: 1
      objectReference: {fileID: 0}
    - target: {fileID: 6592145657010778417, guid: 1ed5bc56f38de9f4f9d72d7749950e8e,
        type: 3}
      propertyPath: m_LocalPosition.x
      value: 0.044
      objectReference: {fileID: 0}
    - target: {fileID: 6592145657010778417, guid: 1ed5bc56f38de9f4f9d72d7749950e8e,
        type: 3}
      propertyPath: m_LocalPosition.y
      value: -0.814
      objectReference: {fileID: 0}
    - target: {fileID: 6592145657010778417, guid: 1ed5bc56f38de9f4f9d72d7749950e8e,
        type: 3}
      propertyPath: m_LocalPosition.z
      value: 2.599
      objectReference: {fileID: 0}
    - target: {fileID: 6592145657010778417, guid: 1ed5bc56f38de9f4f9d72d7749950e8e,
        type: 3}
      propertyPath: m_LocalRotation.w
      value: 0.687301
      objectReference: {fileID: 0}
    - target: {fileID: 6592145657010778417, guid: 1ed5bc56f38de9f4f9d72d7749950e8e,
        type: 3}
      propertyPath: m_LocalRotation.x
      value: -0.7113396
      objectReference: {fileID: 0}
    - target: {fileID: 6592145657010778417, guid: 1ed5bc56f38de9f4f9d72d7749950e8e,
        type: 3}
      propertyPath: m_LocalRotation.y
      value: 0.11267118
      objectReference: {fileID: 0}
    - target: {fileID: 6592145657010778417, guid: 1ed5bc56f38de9f4f9d72d7749950e8e,
        type: 3}
      propertyPath: m_LocalRotation.z
      value: 0.09443841
      objectReference: {fileID: 0}
    - target: {fileID: 6592145657010778417, guid: 1ed5bc56f38de9f4f9d72d7749950e8e,
        type: 3}
      propertyPath: m_LocalEulerAnglesHint.x
      value: -87.55501
      objectReference: {fileID: 0}
    - target: {fileID: 6592145657010778417, guid: 1ed5bc56f38de9f4f9d72d7749950e8e,
        type: 3}
      propertyPath: m_LocalEulerAnglesHint.y
      value: 151.244
      objectReference: {fileID: 0}
    - target: {fileID: 6592145657010778417, guid: 1ed5bc56f38de9f4f9d72d7749950e8e,
        type: 3}
      propertyPath: m_LocalEulerAnglesHint.z
      value: -134.397
      objectReference: {fileID: 0}
    m_RemovedComponents: []
  m_SourcePrefab: {fileID: 100100000, guid: 1ed5bc56f38de9f4f9d72d7749950e8e, type: 3}
--- !u!1 &2060438987
GameObject:
  m_ObjectHideFlags: 0
  m_CorrespondingSourceObject: {fileID: 0}
  m_PrefabInstance: {fileID: 0}
  m_PrefabAsset: {fileID: 0}
  serializedVersion: 6
  m_Component:
  - component: {fileID: 2060438989}
  - component: {fileID: 2060438988}
  m_Layer: 0
  m_Name: Directional Light
  m_TagString: Untagged
  m_Icon: {fileID: 0}
  m_NavMeshLayer: 0
  m_StaticEditorFlags: 0
  m_IsActive: 1
--- !u!108 &2060438988
Light:
  m_ObjectHideFlags: 0
  m_CorrespondingSourceObject: {fileID: 0}
  m_PrefabInstance: {fileID: 0}
  m_PrefabAsset: {fileID: 0}
  m_GameObject: {fileID: 2060438987}
  m_Enabled: 1
  serializedVersion: 10
  m_Type: 1
  m_Shape: 0
  m_Color: {r: 1, g: 0.95686275, b: 0.8392157, a: 1}
  m_Intensity: 1
  m_Range: 10
  m_SpotAngle: 30
  m_InnerSpotAngle: 21.80208
  m_CookieSize: 10
  m_Shadows:
    m_Type: 2
    m_Resolution: -1
    m_CustomResolution: -1
    m_Strength: 1
    m_Bias: 0.05
    m_NormalBias: 0.4
    m_NearPlane: 0.2
    m_CullingMatrixOverride:
      e00: 1
      e01: 0
      e02: 0
      e03: 0
      e10: 0
      e11: 1
      e12: 0
      e13: 0
      e20: 0
      e21: 0
      e22: 1
      e23: 0
      e30: 0
      e31: 0
      e32: 0
      e33: 1
    m_UseCullingMatrixOverride: 0
  m_Cookie: {fileID: 0}
  m_DrawHalo: 0
  m_Flare: {fileID: 0}
  m_RenderMode: 0
  m_CullingMask:
    serializedVersion: 2
    m_Bits: 4294967295
  m_RenderingLayerMask: 1
  m_Lightmapping: 4
  m_LightShadowCasterMode: 0
  m_AreaSize: {x: 1, y: 1}
  m_BounceIntensity: 1
  m_ColorTemperature: 6570
  m_UseColorTemperature: 0
  m_BoundingSphereOverride: {x: 0, y: 0, z: 0, w: 0}
  m_UseBoundingSphereOverride: 0
  m_ShadowRadius: 0
  m_ShadowAngle: 0
--- !u!4 &2060438989
Transform:
  m_ObjectHideFlags: 0
  m_CorrespondingSourceObject: {fileID: 0}
  m_PrefabInstance: {fileID: 0}
  m_PrefabAsset: {fileID: 0}
  m_GameObject: {fileID: 2060438987}
  m_LocalRotation: {x: 0.40821788, y: -0.23456968, z: 0.10938163, w: 0.8754261}
  m_LocalPosition: {x: 0, y: 3, z: 0}
  m_LocalScale: {x: 1, y: 1, z: 1}
  m_Children: []
  m_Father: {fileID: 0}
  m_RootOrder: 1
  m_LocalEulerAnglesHint: {x: 50, y: -30, z: 0}
