%YAML 1.1
%TAG !u! tag:unity3d.com,2011:
--- !u!181963792 &2655988077585873504
Preset:
  m_ObjectHideFlags: 0
  m_CorrespondingSourceObject: {fileID: 0}
  m_PrefabInstance: {fileID: 0}
  m_PrefabAsset: {fileID: 0}
  m_Name: MasterConfigData_Default
  m_TargetType:
    m_NativeTypeID: 114
    m_ManagedTypePPtr: {fileID: 11500000, guid: cab0f44c05d2b8e49b7fb4c228a1d813,
      type: 3}
    m_ManagedTypeFallback: 
  m_Properties:
  - target: {fileID: 0}
    propertyPath: m_Enabled
    value: 1
    objectReference: {fileID: 0}
  - target: {fileID: 0}
    propertyPath: m_EditorHideFlags
    value: 0
    objectReference: {fileID: 0}
  - target: {fileID: 0}
    propertyPath: m_EditorClassIdentifier
    value: 
    objectReference: {fileID: 0}
  - target: {fileID: 0}
    propertyPath: SonicPi.BootSonicPiOnGameStart
    value: 0
    objectReference: {fileID: 0}
  - target: {fileID: 0}
    propertyPath: SonicPi.OscUpdateInterval
    value: 0.5
    objectReference: {fileID: 0}
  - target: {fileID: 0}
    propertyPath: SpawnerData.Radius
    value: 20
    objectReference: {fileID: 0}
  - target: {fileID: 0}
    propertyPath: SpawnerData.OffsetX
    value: 19
    objectReference: {fileID: 0}
  - target: {fileID: 0}
    propertyPath: SpawnerData.OffsetZ
    value: 24
    objectReference: {fileID: 0}
  - target: {fileID: 0}
    propertyPath: LineVisualizerData.LanesAmount
    value: 20
    objectReference: {fileID: 0}
  - target: {fileID: 0}
    propertyPath: LineVisualizerData.DeactivateDistance
    value: 175
    objectReference: {fileID: 0}
  - target: {fileID: 0}
    propertyPath: LineVisualizerData.SampleScaler
    value: 1.7
    objectReference: {fileID: 0}
  - target: {fileID: 0}
    propertyPath: LineVisualizerData.xScale
    value: 2.91
    objectReference: {fileID: 0}
  - target: {fileID: 0}
    propertyPath: LineVisualizerData.zScale
    value: 16
    objectReference: {fileID: 0}
  - target: {fileID: 0}
    propertyPath: LineVisualizerData.Color.r
    value: 0.93333334
    objectReference: {fileID: 0}
  - target: {fileID: 0}
    propertyPath: LineVisualizerData.Color.g
    value: 0.8980392
    objectReference: {fileID: 0}
  - target: {fileID: 0}
    propertyPath: LineVisualizerData.Color.b
    value: 0.68235296
    objectReference: {fileID: 0}
  - target: {fileID: 0}
    propertyPath: LineVisualizerData.Color.a
    value: 1
    objectReference: {fileID: 0}
  - target: {fileID: 0}
    propertyPath: LineVisualizerData.PerlinNoiseScale
    value: 0.2
    objectReference: {fileID: 0}
  - target: {fileID: 0}
    propertyPath: LineVisualizerData.PerlinNoiseResultScale
    value: 1.58
    objectReference: {fileID: 0}
  - target: {fileID: 0}
    propertyPath: LineVisualizerData.PerlinNoiseSpeed
    value: 2.17
    objectReference: {fileID: 0}
  - target: {fileID: 0}
    propertyPath: CullingData.BoundingSphereRadius
    value: 30
    objectReference: {fileID: 0}
  - target: {fileID: 0}
    propertyPath: islandMovementData.Amplitude
    value: 0.1
    objectReference: {fileID: 0}
  - target: {fileID: 0}
    propertyPath: islandMovementData.TimeFactor
    value: 0.5
    objectReference: {fileID: 0}
  - target: {fileID: 0}
    propertyPath: islandMovementData.DistanceOffset
    value: 0.000001
    objectReference: {fileID: 0}
  - target: {fileID: 0}
    propertyPath: islandMovementData.EaseFact
    value: 3
    objectReference: {fileID: 0}
  - target: {fileID: 0}
    propertyPath: islandMovementData.DistanceToCamRange
    value: 800
    objectReference: {fileID: 0}
  - target: {fileID: 0}
    propertyPath: desertGlitchData.glitchThreshold
    value: 0.483
    objectReference: {fileID: 0}
  - target: {fileID: 0}
    propertyPath: desertGlitchData.desertTexture
    value: 
    objectReference: {fileID: 2800000, guid: a6df245b726b1c74a880784a5a713d12, type: 3}
  - target: {fileID: 0}
    propertyPath: boidData.boidSpawnerData.boidAmount
    value: 100
    objectReference: {fileID: 0}
  - target: {fileID: 0}
    propertyPath: boidData.CohesionWeight
    value: 278
    objectReference: {fileID: 0}
  - target: {fileID: 0}
    propertyPath: boidData.CohesionStep
    value: 16
    objectReference: {fileID: 0}
  - target: {fileID: 0}
    propertyPath: boidData.SeperationWeight
    value: 33
    objectReference: {fileID: 0}
  - target: {fileID: 0}
    propertyPath: boidData.SeperationStep
    value: 10
    objectReference: {fileID: 0}
  - target: {fileID: 0}
    propertyPath: boidData.AlignmentWeight
    value: 65
    objectReference: {fileID: 0}
  - target: {fileID: 0}
    propertyPath: boidData.BoundsWeight
    value: 10
    objectReference: {fileID: 0}
  - target: {fileID: 0}
    propertyPath: boidData.AvoidingWeight
    value: 10
    objectReference: {fileID: 0}
  - target: {fileID: 0}
    propertyPath: boidData.SeekingWeight
    value: 10
    objectReference: {fileID: 0}
  - target: {fileID: 0}
    propertyPath: boidData.MaxVelocity
    value: 4
    objectReference: {fileID: 0}
  - target: {fileID: 0}
    propertyPath: boidData.MaxAngle
    value: 6.4
    objectReference: {fileID: 0}
  - target: {fileID: 0}
    propertyPath: boidData.MinPlayerDistance
    value: 200
    objectReference: {fileID: 0}
  - target: {fileID: 0}
    propertyPath: boidData.DebugData.PlayerIsMoving
    value: 0
    objectReference: {fileID: 0}
  - target: {fileID: 0}
    propertyPath: boidData.DebugData.PlayerIsClose
    value: 0
    objectReference: {fileID: 0}
  - target: {fileID: 0}
    propertyPath: zonesData.Zones.Array.size
    value: 4
    objectReference: {fileID: 0}
  - target: {fileID: 0}
    propertyPath: zonesData.Zones.Array.data[0].Type
    value: 0
    objectReference: {fileID: 0}
  - target: {fileID: 0}
    propertyPath: zonesData.Zones.Array.data[0].StartAngle
    value: 0
    objectReference: {fileID: 0}
  - target: {fileID: 0}
    propertyPath: zonesData.Zones.Array.data[1].Type
    value: 1
    objectReference: {fileID: 0}
  - target: {fileID: 0}
    propertyPath: zonesData.Zones.Array.data[1].StartAngle
    value: 63
    objectReference: {fileID: 0}
  - target: {fileID: 0}
    propertyPath: zonesData.Zones.Array.data[2].Type
    value: 2
    objectReference: {fileID: 0}
  - target: {fileID: 0}
    propertyPath: zonesData.Zones.Array.data[2].StartAngle
    value: 102
    objectReference: {fileID: 0}
  - target: {fileID: 0}
    propertyPath: zonesData.Zones.Array.data[3].Type
    value: 3
    objectReference: {fileID: 0}
  - target: {fileID: 0}
    propertyPath: zonesData.Zones.Array.data[3].StartAngle
    value: 140
    objectReference: {fileID: 0}
  - target: {fileID: 0}
    propertyPath: kinect.leanModifier.forward
    value: 1
    objectReference: {fileID: 0}
  - target: {fileID: 0}
    propertyPath: kinect.leanModifier.sideways
    value: 1
    objectReference: {fileID: 0}
  - target: {fileID: 0}
    propertyPath: kinect.checkin.lookbackRange
    value: 100
    objectReference: {fileID: 0}
  - target: {fileID: 0}
    propertyPath: kinect.checkin.requiredSuccessRate
    value: 0.8
    objectReference: {fileID: 0}
  - target: {fileID: 0}
    propertyPath: kinect.checkin.progressThreshold
    value: 20
    objectReference: {fileID: 0}
